…
~~~
tidy <- as.tbl(messy) %>%
    dplyr::mutate(timepoint=1:7)  %>%
    tidyr::gather(well, od, -V1, -V2, -V3, -timepoint) %>%
    dplyr::rename(concentration_level=V2) %>%
    dplyr::rename(concentration=V3) %>%
    dplyr::select(-V1)
tidy
~~~
{: .r}



~~~
# A tibble: 455 x 5
   concentration_level concentration timepoint  well    od
                <fctr>         <dbl>     <int> <chr> <dbl>
 1                 low         1e-02         1    V4 0.017
 2                 low         3e-02         2    V4 0.017
 3              medium         1e+00         3    V4 0.018
 4              medium         3e+00         4    V4 0.017
 5              medium         3e+01         5    V4 0.017
 6                high         1e+02         6    V4 0.016
 7                high         3e+02         7    V4 0.015
 8                 low         1e-02         1    V5 0.015
 9                 low         3e-02         2    V5 0.018
10              medium         1e+00         3    V5 0.021
# ... with 445 more rows
…
How could we reverse the process if we for some reason wanted a wide format again?


~~~
unite(tidy, key, concentration_level, concentration, timepoint) %>%
    spread(key, od)
~~~
{: .r}



~~~
# A tibble: 65 x 8
    well high_100_6 high_300_7 low_0.01_1 low_0.03_2 medium_1_3 medium_3_4
 * <chr>      <dbl>      <dbl>      <dbl>      <dbl>      <dbl>      <dbl>
 1   V10      0.023      0.021      0.025      0.024      0.025      0.024
 2   V11      0.024      0.024      0.028      0.027      0.027      0.026
 3   V12      0.023      0.022      0.026      0.025      0.025      0.025
 4   V13      0.025      0.024      0.028      0.028      0.028      0.028
 5   V14      0.027      0.025      0.030      0.031      0.029      0.030
 6   V15      0.029      0.027      0.032      0.032      0.031      0.032
 7   V16      0.029      0.027      0.033      0.033      0.035      0.034
 8   V17      0.032      0.028      0.037      0.037      0.038      0.036
 9   V18      0.033      0.028      0.041      0.038      0.038      0.038
10   V19      0.035      0.031      0.042      0.042      0.041      0.041
# ... with 55 more rows, and 1 more variables: medium_30_5 <dbl>
…
